<?xml version="1.0" encoding="utf-8"?>
<!-- Generator: Adobe Illustrator 21.1.0, SVG Export Plug-In . SVG Version: 6.00 Build 0)  -->
<svg version="1.1" id="Layer_1" xmlns="http://www.w3.org/2000/svg" xmlns:xlink="http://www.w3.org/1999/xlink" x="0px" y="0px"
	 viewBox="0 0 202.5 239.3" style="enable-background:new 0 0 202.5 239.3;" xml:space="preserve">
<style type="text/css">
	.st0{fill:#92C54E;}
	.st1{fill:#333333;}
</style>
<path class="st0" d="M168.8,107.5c0,29-23.5,52.5-52.5,52.5s-52.5-23.5-52.5-52.5S87.3,55,116.3,55S168.8,78.5,168.8,107.5
	L168.8,107.5z M168.8,107.5"/>
<path class="st1" d="M194.1,21.3c-26.3,0-52.1-5-76.5-14.7L116.3,6l-1.4,0.6c-24.4,9.8-50.2,14.7-76.5,14.7H30V100H11.3
	C5,100,0,105.1,0,111.3V175c0,6.2,5,11.3,11.3,11.3H45c8.9,14.1,21.1,25.7,35.8,33.7l35.5,19.3l35.5-19.3
	c31.3-17.1,50.8-49.9,50.8-85.5V21.3H194.1z M7.5,175v-63.7c0-2.1,1.7-3.8,3.8-3.8H45c2.1,0,3.7,1.7,3.7,3.8V175
	c0,2.1-1.7,3.8-3.7,3.8H11.3C9.2,178.8,7.5,177.1,7.5,175L7.5,175z M56.2,118.8c12.5-0.7,22.5-11.1,22.5-23.8V75.7
	c0-5.2,4.2-9.4,9.4-9.4s9.4,4.2,9.4,9.4v23.6c0,6.6,5.4,12,12,12H137c7.2,0,13,5.8,13,13v41.5c0,7.2-5.8,13-13,13H81.8
	c-3,0-5.7-1.5-7.4-4c-3-4.6-8.1-7.3-13.6-7.3h-4.5V118.8z M195,134.4c0,32.9-18,63.2-46.9,79l-31.9,17.4l-31.9-17.4
	c-13-7.1-24.1-17.4-32.2-29.8c2.3-1.9,3.8-4.7,4-7.8c7.6,13.1,18.5,23.8,31.8,31l28.3,15.4l28.3-15.4c26.5-14.5,43-42.2,43-72.4
	V77.5H180v56.9c0,27.4-15,52.7-39.1,65.8l-24.7,13.5l-24.7-13.5c-10.6-5.8-19.4-13.9-26.1-23.8c1,0.7,2,1.5,2.7,2.6
	c3,4.6,8.1,7.3,13.6,7.3H137c11.3,0,20.5-9.2,20.5-20.5v-41.5c0-11.3-9.2-20.5-20.5-20.5h-27.5c-2.5,0-4.5-2-4.5-4.5V75.7
	c0-9.3-7.6-16.9-16.9-16.9s-16.9,7.6-16.9,16.9V95c0,8.6-6.6,15.5-15,16.2c0-3.3-1.5-6.2-3.7-8.2V43.4c21.8-1.3,43.2-5.8,63.8-13.3
	c20.5,7.5,42,11.9,63.8,13.3v4.2h7.5V36.2l-3.6-0.2c-22.7-1-45-5.6-66.4-13.5l-1.3-0.5l-1.3,0.5C93.6,30.5,71.3,35,48.6,36.1
	L45,36.2V100h-7.5V28.8h0.9c26.8,0,53-4.9,77.9-14.7c24.9,9.8,51.1,14.7,77.9,14.7h0.9L195,134.4L195,134.4z M195,134.4"/>
<rect x="180" y="62.5" class="st1" width="7.5" height="7.5"/>
<rect x="15" y="163.8" class="st1" width="26.3" height="7.5"/>
</svg>
