<?xml version="1.0" encoding="utf-8"?>
<!-- Generator: Adobe Illustrator 21.1.0, SVG Export Plug-In . SVG Version: 6.00 Build 0)  -->
<svg version="1.1" id="Objects" xmlns="http://www.w3.org/2000/svg" xmlns:xlink="http://www.w3.org/1999/xlink" x="0px" y="0px"
	 viewBox="0 0 225.4 63.8" style="enable-background:new 0 0 225.4 63.8;" xml:space="preserve">
<style type="text/css">
	.st0{fill:#999999;}
	.st1{fill:#3F3E43;}
	.st2{fill:#ffffff;}
</style>
<g>
	<path id="XMLID_157_" class="st0" d="M30,20L30,20c-1.7,0-3,1.4-3,3v-8.1c0-1.7-1.4-3-3-3l0,0c-1.7,0-3,1.4-3,3v-3.2
		c0-1.7-1.4-3-3-3l0,0c-1.7,0-3,1.4-3,3v6.6c0-1.7-1.4-3-3-3l0,0c-1.7,0-3,1.4-3,3v15.8C9,30.7,6.3,28,2.9,28l0,0v6.6v5.5V48
		c0,8.4,6.8,15.2,15.2,15.2l0,0c8.4,0,15.2-6.8,15.2-15.2v-7.9v-5.5V23C33,21.4,31.6,20,30,20z"/>
	<path class="st1" d="M29.8,16.2c-0.8,0-1.6,0.2-2.2,0.6v-0.7v-4.3c0-2.3-1.9-4.2-4.2-4.2c-0.8,0-1.6,0.2-2.2,0.6
		c-0.1-2.2-2-4-4.2-4c-2.3,0-4.2,1.9-4.2,4.2v3.4c-0.6-0.4-1.4-0.6-2.2-0.6c-2.3,0-4.2,1.9-4.2,4.2V27C5,25.5,3.1,24.6,1,24.6
		c-0.6,0-1,0.4-1,1v21.1c0,9.4,7.7,17.1,17.1,17.1s17.1-7.7,17.1-17.1V20.3C34,18.1,32.1,16.2,29.8,16.2z M1.8,46.8v-20
		c2.5,0.5,4.4,2.7,4.4,5.3c0,0.6,0.4,1,1,1s1-0.4,1-1V15.4c0-1.2,1-2.2,2.2-2.2s2.2,1,2.2,2.2v16.5c0,0.6,0.4,1,1,1s1-0.4,1-1V8.5
		c0-1.2,1-2.2,2.2-2.2s2.2,1,2.2,2.2V32c0,0.6,0.4,1,1,1c0.6,0,1-0.4,1-1V11.8c0-1.2,1-2.2,2.2-2.2s2.2,1,2.2,2.2v4.3v15.8
		c0,0.6,0.4,1,1,1s1-0.4,1-1V20.3c0-1.2,1-2.2,2.2-2.2s2.2,1,2.2,2.2v26.2c0,7.4-6,13.4-13.3,13.4C12.7,59.9,8,55.2,8,49.4
		c0-4.5,3.7-8.2,8.2-8.2c3.5,0,6.4,2.9,6.4,6.4c0,2.7-2.2,4.9-4.9,4.9c-2.1,0-3.7-1.7-3.7-3.7c0-1.5,1.2-2.8,2.8-2.8
		c1.1,0,2,0.9,2,2c0,0.8-0.6,1.4-1.4,1.4c-0.5,0-0.9-0.4-0.9-0.9c0-0.6-0.4-1-1-1s-1,0.4-1,1c0,1.6,1.3,2.9,2.9,2.9
		c1.9,0,3.4-1.5,3.4-3.4c0-2.2-1.8-4-4-4c-2.6,0-4.8,2.1-4.8,4.8c0,3.2,2.6,5.7,5.7,5.7c3.8,0,6.9-3.1,6.9-6.9
		c0-4.6-3.8-8.4-8.4-8.4C10.6,39.2,6,43.8,6,49.4c0,6.7,5.2,12.1,11.8,12.5c-0.3,0-0.7,0-1,0C8.6,61.9,1.8,55.1,1.8,46.8z"/>
	<path class="st2" d="M57.4,30.8c0,2.1-0.6,3.7-1.8,4.9c-1.2,1.1-2.9,1.7-5.1,1.7h-3.6V24.5h4c2,0,3.6,0.6,4.8,1.7
		C56.9,27.3,57.4,28.8,57.4,30.8z M55.2,30.9c0-3.1-1.4-4.6-4.3-4.6h-1.8v9.3h1.5C53.7,35.6,55.2,34,55.2,30.9z M67.5,37.4h-7.3
		V24.5h7.3v1.8h-5.2v3.5h4.8v1.8h-4.8v4h5.2V37.4z M77.5,37.4h-7.2V24.5h7.3v1.8h-5.2v3.5h4.8v1.8h-4.8v4h5.2v1.8L77.5,37.4
		L77.5,37.4z M88.8,28.4c0,1.3-0.4,2.4-1.3,3.1c-0.9,0.7-2.1,1.1-3.8,1.1h-1.3v4.8h-2.1V24.5H84c1.6,0,2.8,0.3,3.6,1
		C88.4,26.2,88.8,27.1,88.8,28.4z M82.4,30.8h1.1c1.1,0,1.9-0.2,2.4-0.6s0.8-1,0.8-1.8c0-0.7-0.2-1.3-0.7-1.7s-1.2-0.5-2.1-0.5h-1.5
		V30.8z M101.8,30.8c0,2.1-0.6,3.7-1.8,4.9c-1.2,1.1-2.9,1.7-5.1,1.7h-3.6V24.5h4c2,0,3.6,0.6,4.8,1.7S101.8,28.8,101.8,30.8z
		 M99.6,30.9c0-3.1-1.4-4.6-4.3-4.6h-1.8v9.3H95C98.1,35.6,99.6,34,99.6,30.9z M111.9,37.4h-7.3V24.5h7.3v1.8h-5.2v3.5h4.8v1.8h-4.8
		v4h5.2V37.4z M122,33.9c0,1.1-0.4,2-1.2,2.7s-2,1-3.4,1c-1.4,0-2.6-0.2-3.6-0.7v-2c0.6,0.3,1.2,0.5,1.9,0.7s1.3,0.2,1.8,0.2
		c0.8,0,1.4-0.2,1.8-0.5s0.6-0.7,0.6-1.3c0-0.5-0.2-0.9-0.5-1.2c-0.3-0.3-1.1-0.7-2.3-1.2c-1.2-0.5-2-1-2.5-1.6s-0.7-1.3-0.7-2.2
		c0-1.1,0.4-1.9,1.1-2.5s1.8-0.9,3.1-0.9c1.2,0,2.5,0.3,3.7,0.8l-0.7,1.7c-1.1-0.5-2.2-0.7-3.1-0.7c-0.7,0-1.2,0.1-1.5,0.4
		c-0.4,0.3-0.5,0.7-0.5,1.2c0,0.3,0.1,0.6,0.2,0.9c0.1,0.2,0.4,0.5,0.7,0.7c0.3,0.2,0.9,0.5,1.7,0.8c0.9,0.4,1.6,0.8,2.1,1.1
		s0.8,0.7,1,1.2C121.9,33,122,33.3,122,33.9z M124.5,37.4V24.5h2.1v12.8h-2.1V37.4z M135.3,30.4h4.7v6.5c-0.8,0.3-1.5,0.4-2.2,0.5
		c-0.7,0.1-1.5,0.2-2.3,0.2c-1.9,0-3.4-0.6-4.5-1.7c-1.1-1.2-1.6-2.8-1.6-4.9s0.6-3.7,1.8-4.9c1.2-1.2,2.8-1.8,4.9-1.8
		c1.3,0,2.6,0.3,3.8,0.8l-0.7,1.7c-1-0.5-2.1-0.7-3.1-0.7c-1.4,0-2.5,0.4-3.3,1.3c-0.8,0.9-1.2,2-1.2,3.5c0,1.6,0.4,2.8,1.1,3.6
		c0.7,0.8,1.8,1.2,3.1,1.2c0.7,0,1.4-0.1,2.2-0.3v-3.3h-2.7C135.3,32.1,135.3,30.4,135.3,30.4z M153.8,37.4h-2.6l-6.3-10.2h-0.1v0.6
		c0.1,1.1,0.1,2.1,0.1,3v6.7H143v-13h2.5l6.3,10.2h0.1c0-0.1,0-0.6-0.1-1.5c-0.1-0.9-0.1-1.5-0.1-2v-6.7h1.9v12.9H153.8z
		 M169.3,33.9c0,1.1-0.4,2-1.2,2.7c-0.8,0.7-2,1-3.4,1s-2.6-0.2-3.6-0.7v-2c0.6,0.3,1.2,0.5,1.9,0.7s1.3,0.2,1.8,0.2
		c0.8,0,1.4-0.2,1.8-0.5c0.4-0.3,0.6-0.7,0.6-1.3c0-0.5-0.2-0.9-0.5-1.2s-1.1-0.7-2.3-1.2s-2-1-2.5-1.6s-0.7-1.3-0.7-2.2
		c0-1.1,0.4-1.9,1.1-2.5c0.7-0.6,1.8-0.9,3.1-0.9c1.2,0,2.5,0.3,3.7,0.8l-0.7,1.7c-1.1-0.5-2.2-0.7-3.1-0.7c-0.7,0-1.2,0.1-1.5,0.4
		c-0.4,0.3-0.5,0.7-0.5,1.2c0,0.3,0.1,0.6,0.2,0.9c0.1,0.2,0.4,0.5,0.7,0.7s0.9,0.5,1.7,0.8c0.9,0.4,1.6,0.8,2.1,1.1s0.8,0.7,1,1.2
		S169.3,33.3,169.3,33.9z M176.2,37.4h-2.1v-11h-3.8v-1.9h9.7v1.8h-3.8C176.2,26.3,176.2,37.4,176.2,37.4z M192,24.5v8.3
		c0,0.9-0.2,1.8-0.6,2.5c-0.4,0.7-1,1.3-1.8,1.6c-0.8,0.4-1.7,0.6-2.8,0.6c-1.6,0-2.8-0.4-3.7-1.3c-0.9-0.9-1.3-2-1.3-3.5v-8.2h2.1
		v8.1c0,1.1,0.2,1.8,0.7,2.3s1.2,0.8,2.3,0.8c2,0,3-1,3-3.1v-8.1L192,24.5L192,24.5z M205.8,30.8c0,2.1-0.6,3.7-1.8,4.9
		c-1.2,1.1-2.9,1.7-5.1,1.7h-3.6V24.5h4c2,0,3.6,0.6,4.8,1.7C205.3,27.3,205.8,28.8,205.8,30.8z M203.5,30.9c0-3.1-1.4-4.6-4.3-4.6
		h-1.8v9.3h1.5C202,35.6,203.5,34,203.5,30.9z M208.5,37.4V24.5h2.1v12.8h-2.1V37.4z M225.4,30.9c0,2.1-0.5,3.7-1.6,4.9
		c-1,1.2-2.5,1.7-4.4,1.7s-3.4-0.6-4.5-1.7c-1-1.2-1.6-2.8-1.6-4.9s0.5-3.8,1.6-4.9c1-1.1,2.5-1.7,4.5-1.7c1.9,0,3.4,0.6,4.4,1.7
		S225.4,28.8,225.4,30.9z M215.6,30.9c0,1.6,0.3,2.8,1,3.6c0.6,0.8,1.6,1.2,2.8,1.2c1.2,0,2.2-0.4,2.8-1.2c0.6-0.8,1-2,1-3.6
		s-0.3-2.8-0.9-3.6c-0.6-0.8-1.6-1.2-2.8-1.2c-1.3,0-2.2,0.4-2.9,1.2C215.9,28.2,215.6,29.4,215.6,30.9z M49.9,54.5
		c-0.9,0-1.6-0.3-2.2-0.9s-0.8-1.4-0.8-2.4c0-1.1,0.3-1.9,0.8-2.5s1.3-0.9,2.2-0.9c0.3,0,0.6,0,0.9,0.1s0.6,0.1,0.7,0.2l-0.3,0.8
		c-0.2-0.1-0.4-0.2-0.7-0.2c-0.3,0-0.5-0.1-0.7-0.1c-1.3,0-2,0.8-2,2.5c0,0.8,0.2,1.4,0.5,1.8s0.8,0.6,1.4,0.6
		c0.5,0,1.1-0.1,1.6-0.3v0.9C51.1,54.4,50.6,54.5,49.9,54.5z M57,54.4l-0.2-0.9l0,0c-0.3,0.4-0.6,0.7-1,0.8
		c-0.4,0.1-0.7,0.2-1.2,0.2c-0.6,0-1.1-0.2-1.5-0.5s-0.5-0.8-0.5-1.4c0-1.3,1-2,3.1-2h1.1v-0.4c0-0.5-0.1-0.9-0.3-1.1
		c-0.2-0.2-0.6-0.4-1-0.4c-0.5,0-1.1,0.2-1.8,0.5l-0.3-0.7c0.3-0.2,0.7-0.3,1-0.4s0.8-0.1,1.1-0.1c0.8,0,1.3,0.2,1.7,0.5
		s0.6,0.9,0.6,1.6v4.4H57L57,54.4L57,54.4z M54.8,53.7c0.6,0,1.1-0.2,1.4-0.5s0.5-0.8,0.5-1.4v-0.6h-1c-0.8,0-1.3,0.1-1.7,0.4
		s-0.5,0.5-0.5,1c0,0.4,0.1,0.6,0.3,0.8C54,53.6,54.4,53.7,54.8,53.7z M60.7,54.4h-1v-9.1h1V54.4z M71,54.4v-4.2
		c0-0.5-0.1-0.9-0.3-1.2c-0.2-0.3-0.6-0.4-1-0.4c-0.6,0-1.1,0.2-1.3,0.5C68.2,49.4,68,50,68,50.7v3.6h-1v-4.2c0-0.5-0.1-0.9-0.3-1.2
		c-0.2-0.3-0.6-0.4-1-0.4c-0.6,0-1.1,0.2-1.3,0.5c-0.2,0.3-0.4,1-0.4,1.8v3.4h-1v-6.4h0.8l0.2,0.9l0,0c0.2-0.3,0.4-0.6,0.8-0.7
		s0.7-0.3,1.1-0.3c1,0,1.7,0.4,2,1.1l0,0c0.2-0.3,0.5-0.6,0.8-0.8s0.8-0.3,1.2-0.3c0.7,0,1.3,0.2,1.6,0.6c0.3,0.4,0.5,1,0.5,1.8v4.2
		L71,54.4L71,54.4L71,54.4z M82.3,54.4l-1.2-3.8c-0.1-0.2-0.2-0.8-0.4-1.6l0,0c-0.2,0.7-0.3,1.2-0.4,1.6l-1.2,3.8H78L76.2,48h1
		c0.4,1.6,0.7,2.8,0.9,3.7c0.2,0.9,0.3,1.4,0.4,1.7l0,0c0-0.2,0.1-0.5,0.2-0.9s0.2-0.6,0.2-0.8l1.2-3.7h1.1l1.1,3.7
		c0.2,0.7,0.4,1.2,0.4,1.7l0,0c0-0.1,0.1-0.4,0.1-0.7s0.5-1.9,1.2-4.7h1l-1.8,6.4L82.3,54.4L82.3,54.4z M89.1,54.5
		c-0.9,0-1.7-0.3-2.2-0.9s-0.8-1.4-0.8-2.4s0.3-1.9,0.8-2.5s1.2-0.9,2.1-0.9c0.8,0,1.4,0.3,1.9,0.8s0.7,1.2,0.7,2.1v0.6h-4.4
		c0,0.8,0.2,1.3,0.6,1.7s0.9,0.6,1.5,0.6c0.7,0,1.4-0.1,2.1-0.4v0.9c-0.3,0.1-0.7,0.3-1,0.3S89.5,54.5,89.1,54.5z M88.8,48.6
		c-0.5,0-0.9,0.2-1.2,0.5c-0.3,0.3-0.5,0.8-0.5,1.4h3.4c0-0.6-0.1-1.1-0.4-1.4S89.3,48.6,88.8,48.6z M96.1,47.8c0.8,0,1.5,0.3,2,0.9
		s0.7,1.4,0.7,2.4s-0.2,1.9-0.7,2.5s-1.1,0.9-2,0.9c-0.4,0-0.8-0.1-1.1-0.2s-0.6-0.4-0.9-0.7H94l-0.2,0.8h-0.7v-9.1h1v2.2
		c0,0.5,0,0.9,0,1.3l0,0C94.5,48.2,95.2,47.8,96.1,47.8z M96,48.7c-0.7,0-1.1,0.2-1.4,0.6s-0.4,1-0.4,1.9s0.2,1.5,0.5,1.9
		c0.3,0.4,0.8,0.6,1.4,0.6c0.6,0,1-0.2,1.3-0.7s0.4-1.1,0.4-1.9s-0.1-1.5-0.4-1.9S96.6,48.7,96,48.7z M107.7,52.6
		c0,0.6-0.2,1.1-0.7,1.4s-1.1,0.5-1.9,0.5c-0.9,0-1.5-0.1-2-0.4v-0.9c0.3,0.2,0.6,0.3,1,0.4c0.4,0.1,0.7,0.1,1,0.1
		c0.5,0,0.9-0.1,1.2-0.2s0.4-0.4,0.4-0.7c0-0.3-0.1-0.5-0.3-0.6c-0.2-0.1-0.6-0.4-1.3-0.6c-0.6-0.2-1-0.4-1.3-0.6
		c-0.3-0.2-0.4-0.4-0.6-0.6s-0.2-0.5-0.2-0.8c0-0.5,0.2-0.9,0.6-1.2s1-0.5,1.8-0.5c0.7,0,1.4,0.1,2,0.4l-0.3,0.8
		c-0.6-0.3-1.2-0.4-1.8-0.4c-0.5,0-0.8,0.1-1,0.2c-0.2,0.1-0.4,0.3-0.4,0.6c0,0.2,0,0.3,0.1,0.4c0.1,0.1,0.2,0.2,0.4,0.3
		c0.2,0.1,0.6,0.3,1.1,0.5c0.8,0.3,1.3,0.6,1.5,0.8C107.2,51.7,107.7,52.2,107.7,52.6z M114.9,51.2c0,1-0.3,1.9-0.8,2.5
		s-1.3,0.9-2.2,0.9c-0.6,0-1.1-0.1-1.5-0.4c-0.4-0.3-0.8-0.7-1-1.2c-0.2-0.5-0.4-1.1-0.4-1.8c0-1,0.3-1.9,0.8-2.4s1.3-0.9,2.2-0.9
		c0.9,0,1.6,0.3,2.1,0.9S114.9,50.1,114.9,51.2z M110,51.2c0,0.8,0.2,1.4,0.5,1.9c0.3,0.5,0.8,0.6,1.4,0.6c0.6,0,1.1-0.2,1.5-0.6
		c0.4-0.4,0.5-1.1,0.5-1.9s-0.2-1.4-0.5-1.9c-0.3-0.5-0.8-0.6-1.5-0.6c-0.6,0-1.1,0.2-1.4,0.6S110,50.3,110,51.2z M117.5,54.4h-1
		v-9.1h1V54.4z M120.5,48v4.2c0,0.5,0.1,0.9,0.4,1.2c0.3,0.3,0.6,0.4,1.1,0.4c0.7,0,1.2-0.2,1.5-0.6c0.3-0.4,0.5-1,0.5-1.8V48h1v6.4
		h-0.8l-0.1-0.9H124c-0.2,0.3-0.5,0.6-0.8,0.7s-0.8,0.3-1.2,0.3c-0.8,0-1.4-0.2-1.8-0.6s-0.6-1-0.6-1.8v-4.2L120.5,48L120.5,48z
		 M129,53.7c0.2,0,0.3,0,0.5,0s0.3-0.1,0.4-0.1v0.7c-0.1,0.1-0.3,0.1-0.5,0.1s-0.4,0-0.6,0c-1.2,0-1.9-0.7-1.9-2v-3.8H126v-0.5
		l0.9-0.4l0.4-1.4h0.6v1.5h1.9v0.8h-1.9v3.8c0,0.4,0.1,0.7,0.3,0.9S128.7,53.7,129,53.7z M131.1,46.2c0-0.2,0.1-0.4,0.2-0.5
		c0.1-0.1,0.2-0.2,0.4-0.2s0.3,0.1,0.4,0.2c0.1,0.1,0.2,0.3,0.2,0.5s-0.1,0.4-0.2,0.5c-0.1,0.1-0.2,0.2-0.4,0.2s-0.3-0.1-0.4-0.2
		C131.2,46.6,131.1,46.4,131.1,46.2z M132.2,54.4h-1V48h1V54.4z M139.8,51.2c0,1-0.3,1.9-0.8,2.5s-1.3,0.9-2.2,0.9
		c-0.6,0-1.1-0.1-1.5-0.4c-0.4-0.3-0.8-0.7-1-1.2c-0.2-0.5-0.4-1.1-0.4-1.8c0-1,0.3-1.9,0.8-2.4s1.3-0.9,2.2-0.9
		c0.9,0,1.6,0.3,2.1,0.9S139.8,50.1,139.8,51.2z M134.9,51.2c0,0.8,0.2,1.4,0.5,1.9s0.8,0.6,1.4,0.6c0.6,0,1.1-0.2,1.5-0.6
		c0.4-0.4,0.5-1.1,0.5-1.9s-0.2-1.4-0.5-1.9c-0.3-0.5-0.8-0.6-1.5-0.6c-0.6,0-1.1,0.2-1.4,0.6S134.9,50.3,134.9,51.2z M145.9,54.4
		v-4.2c0-0.5-0.1-0.9-0.4-1.2s-0.6-0.4-1.1-0.4c-0.7,0-1.2,0.2-1.5,0.5s-0.5,1-0.5,1.8v3.4h-1v-6.4h0.9l0.2,0.9l0,0
		c0.2-0.3,0.5-0.6,0.8-0.7c0.3-0.1,0.8-0.3,1.2-0.3c0.8,0,1.4,0.2,1.7,0.6s0.6,1,0.6,1.8v4.2L145.9,54.4L145.9,54.4z M153,52.6
		c0,0.6-0.2,1.1-0.7,1.4s-1,0.5-1.9,0.5c-0.9,0-1.5-0.1-2-0.4v-0.9c0.3,0.2,0.6,0.3,1,0.4c0.4,0.1,0.7,0.1,1,0.1
		c0.5,0,0.9-0.1,1.2-0.2c0.3-0.1,0.4-0.4,0.4-0.7c0-0.3-0.1-0.5-0.3-0.6s-0.6-0.4-1.3-0.6c-0.6-0.2-1-0.4-1.3-0.6
		c-0.3-0.2-0.4-0.4-0.6-0.6s-0.2-0.5-0.2-0.8c0-0.5,0.2-0.9,0.6-1.2c0.4-0.3,1-0.5,1.8-0.5c0.7,0,1.4,0.1,2,0.4l-0.3,0.8
		c-0.6-0.3-1.2-0.4-1.8-0.4c-0.5,0-0.8,0.1-1,0.2c-0.2,0.1-0.4,0.3-0.4,0.6c0,0.2,0,0.3,0.1,0.4c0.1,0.1,0.2,0.2,0.4,0.3
		s0.6,0.3,1.1,0.5c0.8,0.3,1.3,0.6,1.5,0.8C152.5,51.7,153,52.2,153,52.6z"/>
</g>
</svg>
